895883 905689 401
805164 815110 406
822817 831933 419
887568 896683 401
888292 897551 370
837431 846899 525
810248 819356 450
941450 950735 383
836433 846108 525
860816 870469 388
877217 886646 401
904443 913584 476
809621 818894 406
837282 846413 525
948347 957905 414
877150 887008 445
949344 958558 414
942566 952225 414
933979 943801 507
900696 910213 476
953700 963431 414
948546 958394 414
831463 840728 525
806172 815189 406
803114 812545 406
882526 892300 445
938610 947675 507
891345 901053 401
944016 953856 414
832700 842470 525
801998 811197 406
902361 911410 476
822535 831676 419
888987 898846 370
949854 959648 414
915546 925005 445
843606 852781 419
932943 942615 507
853239 862759 419
914869 923927 445
901680 910820 476
953800 962879 414
936857 945936 507
912953 922938 445
878409 888024 445
925283 935078 476
868366 877731 432
903592 913299 476
825814 835656 419
802706 811891 406
581701 619854 447
538116 548995 452
578352 618133 447
598585 685392 509
638632 698015 442
509540 555558 470
605764 657034 509
565843 617380 447
562118 632072 509
625686 683623 509
644432 727123 504
554434 616075 447
529610 569304 452
636893 662937 429
555956 625676 447
629564 650415 416
503022 566539 470
547154 629766 509
627316 647911 416
519293 580223 452
637486 652358 416
563265 642075 509
539392 616534 452
561182 619444 447
538887 564066 452
519922 597618 452
549166 615618 447
570650 615173 447
568896 600748 434
536968 548245 452
596003 661833 509
627103 661471 429
553263 629238 509
654454 700260 442
634784 680232 442
639788 722601 504
561487 629329 509
525120 599844 452
636961 724901 504
545937 561143 452
639192 696766 442
604327 653080 509
614148 649235 509
508290 527628 470
537544 559143 452
550826 621409 447
512587 587804 452
635118 682790 442
652623 739936 504
653891 695832 442
525707 525725 227
566293 566304 222
503503 503516 183
547944 547962 209
748027 748039 212
933666 933686 171
752727 752742 194
947245 947255 171
801873 801884 238
506397 506416 152
927446 927459 339
546578 546590 253
882201 882213 189
929220 929237 171
836198 836216 207
921753 921770 202
654234 654252 292
575520 575540 222
910694 910712 202
895189 895199 220
522499 566325 452
687163 689778 380
675354 746817 504
193830 231768 443
698281 743233 504
739534 835260 468
207358 233887 443
555203 601477 434
431350 439146 400
133827 183882 383
172539 215390 373
364228 414301 449
659214 682931 442
560782 570407 421
274891 352609 441
741516 805661 468
531534 560245 452
605679 679337 509
362512 366739 361
303770 327894 384
220480 297612 443
602571 694365 509
629401 677830 442
181344 270276 443
430868 471910 444
551823 564703 421
458457 467299 444
259015 309909 407
745772 758650 424
608684 620966 447
491759 507838 426
615107 647884 509
596608 614382 403
240409 310490 407
602671 620092 447
448888 512003 470
147953 192340 383
408255 470234 449
747611 794290 468
480986 576883 470
646705 733292 504
485363 525459 470
139733 186035 383
332536 366184 441
706443 734341 411
462365 499571 426
278644 328333 389
275409 312807 389
459891 480933 444
482166 507991 426
152610 134997 375
753422 729468 424
589834 544120 452
512255 468430 470
777285 746027 468
490622 481231 382
332176 301438 384
612099 593831 403
712488 669542 504
908288 877063 445
782600 763636 468
651046 604024 509
912345 902575 476
837213 822078 419
576895 553825 421
968289 949513 414
945249 905285 507
417898 383871 449
588792 584118 359
164469 151514 383
544525 541723 359
464681 450515 444
734691 702019 504
123398 76979 354
193029 171552 365
244260 211660 443
527535 499553 470
490114 461957 413
672991 663324 442
885139 849300 432
423016 385275 449
343697 305815 384
478624 447841 444
569662 530113 452
306385 283001 389
595600 590320 403
876101 835427 525
178911 134416 383
750949 726120 424
153094 144015 370
404862 381915 436
157150 147280 383
766389 759832 380
983228 941007 458
112860 71694 354
478570 456411 444
685949 668626 385
314462 295541 384
944928 896089 507
164730 131320 383
1 999999 525
